{
    "COMN_BTN100": "Yes",
    "COMN_BTN101": "OK",
    "COMN_BTN102": "Cancel",
    "COMN_INF100": "Missing...",
    "COMN_INF101": "You are not connected to the internet right now",
    "COMN_INF102": "Processing...",
    "COMN_INF103": "Loading...",
    "COMN_INF104": "Updating...",
    "COMN_INF105": "Success",
    "COMN_INF106": "Oops!",
    "COMN_INF107": "We are sorry!",
    "COMN_INF108": "Location Shared.",
    "COMN_CON100": "Save Changes?",
    "COMN_ERR100": "An error occurred!",
    "COMN_ERR101": "An error occurred. Please try again later",
    "LOGIN_INF100": "Authentication failed!",
    "LOGIN_INF101": "Logging in Please wait..!",
    "LOGIN_VAL100": "Username cannot be empty",
    "LOGIN_VAL101": "Password cannot be empty",
    "LOGIN_VAL102": "Please check your Username and Password and try again",
    "LOGIN_VAL103": "Something went wrong. Please try again.",
    "LOGIN_VAL104": "Something went wrong and we can't sign you in right now. Please try again later",
    "LOGIN_VAL105": "Password reset success. Please login using new password.",
    "LOGOUT_VAL100": "An error occurred while attempting to log you out. Please try again",
    "USRREG_INF100": "Password updating. Please wait..!",
    "USRREG_VAL100": "User name cannot be empty",
    "USRREG_VAL101": "Current Password cannot be empty",
    "USRREG_VAL102": "New Password cannot be empty",
    "USRREG_VAL103": "Current Password & new Password cannot be the same.",
    "USRREG_VAL104": "Credential error!",
    "ITM_INF100": "Attendance Successfully updated!",
    "ITM_INF101": "Sale Updating..!",
    "ITM_INF102": "Sale Successfully Updated..!",
    "ITM_INF103": "Reorder Status Successfully Updated..!",
    "ITM_INF104": "Extracting GPS data..",
    "ITM_INF105": "Sale summary successfully Updated..!",
    "ITM_INF106": "Item sucessfully reordered",
    "ITM_ERR100": "Initial quantity cannot be empty!",
    "ITM_ERR101": "Sold quantity cannot be empty!",
    "ITM_ERR102": "Total foot fall cannot be empty!",
    "ITM_ERR103": "Conversion count cannot be empty!",
    "ITM_ERR104": "Only allowed numbers only!.",
    "SALE_INF100": "No results found.",
    "LEAVE_ERR100": "From Date is not a valid date.",
    "LEAVE_ERR101": "To Date is not a valid date.",
    "LEAVE_INF100": "Leave request successfully updated.",
    "TASK_INF100": "Task successfully updated.",
    "IMAGE_INF100": "Uploading..",
    "IMAGE_INF101": "Image successfully uploaded.",
    "IMAGE_ERR100": "Upload failed please try again later"
}
